module gitlab.com/knoxknot/csproject/application

go 1.12

require (
	github.com/DataDog/zstd v1.4.4 // indirect
	github.com/go-stack/stack v1.8.0 // indirect
	github.com/golang/snappy v0.0.1 // indirect
	github.com/gorilla/mux v1.7.3
	github.com/pkg/errors v0.9.1 // indirect
	github.com/xdg/scram v0.0.0-20180814205039-7eeb5667e42c // indirect
	github.com/xdg/stringprep v1.0.0 // indirect
	go.mongodb.org/mongo-driver v1.2.1
	golang.org/x/crypto v0.0.0-20200115085410-6d4e4cb37c7d // indirect
	golang.org/x/sync v0.0.0-20190911185100-cd5d95a43a6e // indirect
)
